…
#### select

Often we get datasets that have many columns or columns that need to be re-ordered.  We can accomplish both of these with `select`.  Here's a quick example with the `penguins` dataset.  We will also be introducing the concept of the pipe: `%>%` which we will be using going forward.  Let's look at some code that we can dissect.

First, without the pipe:


```r
penguin_bill <- select(penguins, species, bill_depth_mm, bill_length_mm)
penguin_bill
```

```
## # A tibble: 344 x 3
##    species bill_depth_mm bill_length_mm
##    <fct>           <dbl>          <dbl>
##  1 Adelie           18.7           39.1
##  2 Adelie           17.4           39.5
##  3 Adelie           18             40.3
##  4 Adelie           NA             NA  
##  5 Adelie           19.3           36.7
##  6 Adelie           20.6           39.3
##  7 Adelie           17.8           38.9
##  8 Adelie           19.6           39.2
##  9 Adelie           18.1           34.1
## 10 Adelie           20.2           42  
## # ... with 334 more rows
```

Then the same thing, but using the pipe instead:


```r
penguin_bill <- penguins %>%
  select(species, bill_depth_mm, bill_length_mm)
penguin_bill
```

```
## # A tibble: 344 x 3
##    species bill_depth_mm bill_length_mm
##    <fct>           <dbl>          <dbl>
##  1 Adelie           18.7           39.1
##  2 Adelie           17.4           39.5
##  3 Adelie           18             40.3
##  4 Adelie           NA             NA  
##  5 Adelie           19.3           36.7
##  6 Adelie           20.6           39.3
##  7 Adelie           17.8           38.9
##  8 Adelie           19.6           39.2
##  9 Adelie           18.1           34.1
## 10 Adelie           20.2           42  
## # ... with 334 more rows
```
…
#### filter

The `filter()` function allows us to fiter our data that meets certain criteria.  For instance, we might want to further manipulate our 3 column data frame with only one species of Iris and Petals greater than the median petal width.


```r
penguin_bill_gentoo_adelie <- penguins %>%
  select(species = species, bill_depth = bill_depth_mm, bill_length = bill_length_mm) %>%
  filter(species == "Gentoo" | species == "Adelie") 
penguin_bill_gentoo_adelie  
```

```
## # A tibble: 276 x 3
##    species bill_depth bill_length
##    <fct>        <dbl>       <dbl>
##  1 Adelie        18.7        39.1
##  2 Adelie        17.4        39.5
##  3 Adelie        18          40.3
##  4 Adelie        NA          NA  
##  5 Adelie        19.3        36.7
##  6 Adelie        20.6        39.3
##  7 Adelie        17.8        38.9
##  8 Adelie        19.6        39.2
##  9 Adelie        18.1        34.1
## 10 Adelie        20.2        42  
## # ... with 266 more rows
```

And we can combine steps to get just Gentoo and big bills:


```r
penguin_bill_gentoo_big <- penguins %>%
  select(species = species, bill_depth = bill_depth_mm, bill_length = bill_length_mm) %>%
  filter(species == "Gentoo") %>%
  filter(bill_length >= median(bill_length, na.rm = TRUE)) 
penguin_bill_gentoo_big
```

```
## # A tibble: 62 x 3
##    species bill_depth bill_length
##    <fct>        <dbl>       <dbl>
##  1 Gentoo        16.3        50  
##  2 Gentoo        14.1        48.7
##  3 Gentoo        15.2        50  
##  4 Gentoo        14.5        47.6
##  5 Gentoo        16.1        49  
##  6 Gentoo        14.6        48.4
##  7 Gentoo        15.7        49.3
##  8 Gentoo        15.2        49.2
##  9 Gentoo        15.1        48.7
## 10 Gentoo        14.3        50.2
## # ... with 52 more rows
```
…
#### mutate

Now say we have some research that suggest the ratio of the bill depth and bill length is important.  We might want to add that as a new column in our data set.  The `mutate` function does this for us.


```r
penguin_bill_ratio <- penguins %>%
  select(species = species, bill_depth = bill_depth_mm, bill_length = bill_length_mm) %>%
  mutate(bill_ratio = bill_depth/bill_length)
penguin_bill_ratio
```

```
## # A tibble: 344 x 4
##    species bill_depth bill_length bill_ratio
##    <fct>        <dbl>       <dbl>      <dbl>
##  1 Adelie        18.7        39.1      0.478
##  2 Adelie        17.4        39.5      0.441
##  3 Adelie        18          40.3      0.447
##  4 Adelie        NA          NA       NA    
##  5 Adelie        19.3        36.7      0.526
##  6 Adelie        20.6        39.3      0.524
##  7 Adelie        17.8        38.9      0.458
##  8 Adelie        19.6        39.2      0.5  
##  9 Adelie        18.1        34.1      0.531
## 10 Adelie        20.2        42        0.481
## # ... with 334 more rows
```
…
